Práctica 4
…
`summarise()` has regrouped the output.
ℹ Summaries were computed grouped by seqid and strand.
ℹ Output is grouped by seqid.
ℹ Use `summarise(.groups = "drop_last")` to silence this message.
ℹ Use `summarise(.by = c(seqid, strand))` for per-operation grouping
  (`?dplyr::dplyr_by`) instead.

print(genes_por_cromosomaysentido)

# A tibble: 116 × 3
# Groups:   seqid [64]
   seqid             strand total_genes
   <chr>             <chr>        <int>
 1 JAJSEB010000001.1 +              376
 2 JAJSEB010000001.1 -              201
 3 JAJSEB010000002.1 -                3
 4 JAJSEB010000003.1 -               39
 5 JAJSEB010000004.1 +               34
 6 JAJSEB010000004.1 -               14
 7 JAJSEB010000005.1 +               32
 8 JAJSEB010000005.1 -              114
 9 JAJSEB010000006.1 +              208
10 JAJSEB010000006.1 -               10
# ℹ 106 more rows
…
